{"content": [{"eclass": "BTSLemmaEntry", "editors": {"author": "Alt\u00e4gyptisches W\u00f6rterbuch", "type": "user", "updated": "2019-12-19"}, "externalReferences": {"aaew": [{"id": "-2434", "type": "demotic"}]}, "id": "dm2434", "name": "n\ua723-nfr-\u1e25r", "passport": {"bibliography": [{"bibliographical_text_field": ["Berlin P 13603, IV 25"]}], "lemma": [{"main_group": [{"wclassnum": ["1000"], "word_class": ["'X"], "woart": ["0"], "lsort": ["ZJ5ZXa5da"]}]}]}, "relations": {"referencing": [{"eclass": "BTSLemmaEntry", "id": "dm1100", "name": "Nfr-\u1e25r", "type": "entity_name"}]}, "reviewState": "published-obsolete", "sortKey": "L53LJM3PM", "translations": {"de": ["sch\u00f6n an Gesicht, gn\u00e4dig"]}, "type": "substantive", "words": [{"transcription": {"unicode": "n\ua723-nfr-\u1e25r", "mdc": "nA-nfr-Hr"}}]}, {"eclass": "BTSLemmaEntry", "editors": {"author": "Alt\u00e4gyptisches W\u00f6rterbuch", "type": "user", "updated": "2019-12-18"}, "externalReferences": {"aaew": [{"id": "-3204", "type": "demotic"}]}, "id": "dm3204", "name": "nfr-\u0131\u0357r-\u1e25r", "passport": {"bibliography": [{"bibliographical_text_field": ["vgl. Demot. Nb. 641 unter nfr-\u1e25r"]}], "lemma": [{"main_group": [{"wclassnum": ["2000"], "word_class": ["'X"], "woart": ["0"], "lsort": ["ZXa5La5da"]}]}]}, "relations": {"referencing": [{"eclass": "BTSLemmaEntry", "id": "dm1100", "name": "Nfr-\u1e25r", "type": "entity_name"}]}, "reviewState": "published-obsolete", "sortKey": "LJM39M3PM", "translations": {"de": ["mit sch\u00f6nem Gesicht, gn\u00e4dig"]}, "type": "adjective", "words": [{"transcription": {"unicode": "nfr-\u0131\u0357r-\u1e25r", "mdc": "nfr-ir-Hr"}}]}, {"eclass": "BTSLemmaEntry", "editors": {"author": "Alt\u00e4gyptisches W\u00f6rterbuch", "type": "user", "updated": "2019-12-18"}, "externalReferences": {"aaew": [{"id": "-1945", "type": "demotic"}]}, "id": "dm1945", "name": "\u1e24r-nfr-\u1e2bb", "passport": {"bibliography": [{"bibliographical_text_field": ["Demot. Nb. 860"]}], "lemma": [{"main_group": [{"wclassnum": ["10000"], "word_class": ["'X"], "comment": ["Lesung fraglich!"], "woart": ["0"], "lsort": ["da5ZXa5eV"]}]}]}, "reviewState": "published", "sortKey": "PM3LJM3QH", "subtype": "person_name", "translations": {"de": ["Horus-der-Sch\u00f6ne (ist in) Chemmis\"(?)]"]}, "type": "entity_name", "words": [{"transcription": {"unicode": "\u1e24r-nfr-\u1e2bb", "mdc": "Hr-nfr-xb"}}]}, {"eclass": "BTSLemmaEntry", "editors": {"author": "Alt\u00e4gyptisches W\u00f6rterbuch", "type": "user", "updated": "2019-12-19"}, "externalReferences": {"aaew": [{"id": "-5579", "type": "demotic"}]}, "id": "dm5579", "name": "n\ua723.w-\ua725n-n\ua723.w", "passport": {"bibliography": [{"bibliographical_text_field": ["P. Petese Tebt. C1, III 9"]}], "lemma": [{"main_group": [{"wclassnum": ["4000"], "word_class": ["'X"], "woart": ["0"], "lsort": ["ZJ2U5QZ5ZJ2U"]}]}]}, "relations": {"referencing": [{"eclass": "BTSLemmaEntry", "id": "dm1348", "name": "\ua725n", "type": "verb"}]}, "reviewState": "published-obsolete", "sortKey": "L52G3DL3L52G", "translations": {"de": ["sch\u00f6n sein (= n\ua723-\ua725n)"]}, "type": "verb", "words": [{"transcription": {"unicode": "n\ua723.w-\ua725n-n\ua723.w", "mdc": "nA.w-an-nA.w"}}]}, {"eclass": "BTSLemmaEntry", "editors": {"author": "Alt\u00e4gyptisches W\u00f6rterbuch", "type": "user", "updated": "2019-12-18"}, "externalReferences": {"aaew": [{"id": "978", "type": "demotic"}]}, "id": "d978", "name": "\ua725n", "passport": {"bibliography": [{"bibliographical_text_field": ["Amazonen, III 23"]}], "lemma": [{"main_group": [{"wclassnum": ["1000"], "word_class": ["'X"], "woart": ["0"], "lsort": ["QZ"]}]}]}, "relations": {"predecessor": [{"eclass": "BTSLemmaEntry", "id": "600622", "name": "\ua725n.w", "type": "substantive"}], "root": [{"eclass": "BTSLemmaEntry", "id": "866603", "name": "\ua725ni\u032f", "type": "root"}]}, "reviewState": "published", "sortKey": "DL", "translations": {"de": ["Gl\u00fcck, Sch\u00f6nes, Gutes"]}, "type": "substantive", "words": [{"transcription": {"unicode": "\ua725n", "mdc": "an"}}]}, {"eclass": "BTSLemmaEntry", "editors": {"author": "Alt\u00e4gyptisches W\u00f6rterbuch", "type": "user", "updated": "2019-12-18"}, "externalReferences": {"aaew": [{"id": "-1100", "type": "demotic"}]}, "id": "dm1100", "name": "Nfr-\u1e25r", "passport": {"bibliography": [{"bibliographical_text_field": ["Erichsen, Glossar 217"]}], "lemma": [{"main_group": [{"wclassnum": ["10020"], "word_class": ["'X"], "woart": ["0"], "lsort": ["ZXa5da"]}]}]}, "relations": {"composedOf": [{"eclass": "BTSLemmaEntry", "id": "d3156", "name": "nfr", "type": "adjective"}, {"eclass": "BTSLemmaEntry", "id": "d4155", "name": "\u1e25r", "type": "substantive"}], "predecessor": [{"eclass": "BTSLemmaEntry", "id": "400940", "name": "nfr-\u1e25r", "type": "epitheton_title"}], "referencedBy": [{"eclass": "BTSLemmaEntry", "id": "dm2434", "name": "n\ua723-nfr-\u1e25r", "type": "substantive"}, {"eclass": "BTSLemmaEntry", "id": "dm2450", "name": "nfr-\u0131\u0357.\u0131\u0357r-\u1e25r", "type": "adjective"}, {"eclass": "BTSLemmaEntry", "id": "dm3204", "name": "nfr-\u0131\u0357r-\u1e25r", "type": "adjective"}]}, "reviewState": "published", "sortKey": "LJM3PM", "subtype": "gods_name", "translations": {"de": ["von sch\u00f6nem Antlitz, gn\u00e4dig"]}, "type": "entity_name", "words": [{"transcription": {"unicode": "Nfr-\u1e25r", "mdc": "nfr-Hr"}}]}, {"eclass": "BTSLemmaEntry", "editors": {"author": "Alt\u00e4gyptisches W\u00f6rterbuch", "type": "user", "updated": "2019-12-19"}, "externalReferences": {"aaew": [{"id": "-1909", "type": "demotic"}]}, "id": "dm1909", "name": "N\ua723-nfr-p\ua723-r\ua725", "passport": {"bibliography": [{"bibliographical_text_field": ["Demot. Nb. 617 (unter n\ua723-nfr-\u0131\u0357b-r\ua725)"]}], "lemma": [{"main_group": [{"wclassnum": ["10000"], "word_class": ["'X"], "woart": ["0"], "lsort": ["ZJ5ZXa5WJ5aQ"]}]}]}, "reviewState": "published", "sortKey": "L53LJM3I53MD", "subtype": "person_name", "translations": {"de": ["Sch\u00f6n ist Re\", eigentlich \"Neferibre"]}, "type": "entity_name", "words": [{"transcription": {"unicode": "N\ua723-nfr-p\ua723-r\ua725", "mdc": "nA-nfr-pA-ra"}}]}, {"eclass": "BTSLemmaEntry", "editors": {"author": "Alt\u00e4gyptisches W\u00f6rterbuch", "type": "user", "updated": "2019-12-19"}, "externalReferences": {"aaew": [{"id": "-711", "type": "demotic"}]}, "id": "dm711", "name": "hrw-nfr", "passport": {"bibliography": [{"bibliographical_text_field": ["vgl. Erichsen, Glossar 278"]}], "lemma": [{"main_group": [{"wclassnum": ["1010"], "word_class": ["'X"], "woart": ["0"], "lsort": ["caU5ZXa"]}]}]}, "relations": {"composedOf": [{"eclass": "BTSLemmaEntry", "id": "d3156", "name": "nfr", "type": "adjective"}, {"eclass": "BTSLemmaEntry", "id": "d3837", "name": "hrw", "type": "substantive"}]}, "reviewState": "published", "sortKey": "OMG3LJM", "subtype": "substantive_masc", "translations": {"de": ["sch\u00f6ner Tag, Festtag, Fest"]}, "type": "substantive", "words": [{"transcription": {"unicode": "hrw-nfr", "mdc": "hrw-nfr"}}]}, {"eclass": "BTSLemmaEntry", "editors": {"author": "Alt\u00e4gyptisches W\u00f6rterbuch", "type": "user", "updated": "2019-12-19"}, "externalReferences": {"aaew": [{"id": "-2831", "type": "demotic"}]}, "id": "dm2831", "name": "N\ua723-nfr-\ua723mj", "passport": {"bibliography": [{"bibliographical_text_field": ["Bresciani, Archivio Nr. 22, 2"]}], "lemma": [{"main_group": [{"wclassnum": ["10060"], "word_class": ["'X"], "woart": ["0"], "lsort": ["ZJ5ZXa5JYO"]}]}]}, "relations": {"referencing": [{"eclass": "BTSLemmaEntry", "id": "dm1160", "name": "Nfr-\ua723mj.t", "type": "epitheton_title"}]}, "reviewState": "published-obsolete", "sortKey": "L53LJM35KA", "subtype": "epith_god", "translations": {"de": ["\"sch\u00f6n an Charakter\" (Form der Isis)"]}, "type": "epitheton_title", "words": [{"transcription": {"unicode": "N\ua723-nfr-\ua723mj", "mdc": "nA-nfr-Amj"}}]}, {"eclass": "BTSLemmaEntry", "editors": {"author": "Alt\u00e4gyptisches W\u00f6rterbuch", "type": "user", "updated": "2019-12-19"}, "externalReferences": {"aaew": [{"id": "-2819", "type": "demotic"}]}, "id": "dm2819", "name": "Nfr-\u0131\u0357mj", "passport": {"bibliography": [{"bibliographical_text_field": ["Bresciani, Archivio Nr. 17, 4"]}], "lemma": [{"main_group": [{"wclassnum": ["10060"], "word_class": ["'X"], "woart": ["0"], "lsort": ["ZXa5LYO"]}]}]}, "relations": {"referencing": [{"eclass": "BTSLemmaEntry", "id": "dm1160", "name": "Nfr-\ua723mj.t", "type": "epitheton_title"}]}, "reviewState": "published-obsolete", "sortKey": "LJM39KA", "subtype": "epith_god", "translations": {"de": ["\"Sch\u00f6n an Charakter\" (Form der Isis)"]}, "type": "epitheton_title", "words": [{"transcription": {"unicode": "Nfr-\u0131\u0357mj", "mdc": "nfr-imj"}}]}, {"eclass": "BTSLemmaEntry", "editors": {"author": "Alt\u00e4gyptisches W\u00f6rterbuch", "type": "user", "updated": "2019-12-18"}, "externalReferences": {"aaew": [{"id": "-1348", "type": "demotic"}]}, "id": "dm1348", "name": "\ua725n", "passport": {"bibliography": [{"bibliographical_text_field": ["Erichsen, Glossar 62"]}], "lemma": [{"main_group": [{"wclassnum": ["4000"], "word_class": ["'X"], "woart": ["0"], "lsort": ["QZ"]}]}]}, "relations": {"predecessor": [{"eclass": "BTSLemmaEntry", "id": "38180", "name": "\ua725n.wt", "type": "substantive"}, {"eclass": "BTSLemmaEntry", "id": "850413", "name": "\ua725n", "type": "verb"}], "referencedBy": [{"eclass": "BTSLemmaEntry", "id": "d2967", "name": "n\ua723-\ua725n", "type": "verb"}, {"eclass": "BTSLemmaEntry", "id": "d3012", "name": "n\ua723.w-n\ua725", "type": "verb"}, {"eclass": "BTSLemmaEntry", "id": "d977", "name": "\ua725nj", "type": "verb"}, {"eclass": "BTSLemmaEntry", "id": "dm529", "name": "n\ua723.w-nw", "type": "verb"}, {"eclass": "BTSLemmaEntry", "id": "dm5579", "name": "n\ua723.w-\ua725n-n\ua723.w", "type": "verb"}], "root": [{"eclass": "BTSLemmaEntry", "id": "866603", "name": "\ua725ni\u032f", "type": "root"}]}, "reviewState": "published", "sortKey": "DL", "translations": {"de": ["sch\u00f6n sein; (mit \u1e25r) froh sein, vergn\u00fcgt sein"]}, "type": "verb", "words": [{"transcription": {"unicode": "\ua725n", "mdc": "an"}}]}, {"eclass": "BTSLemmaEntry", "editors": {"author": "Alt\u00e4gyptisches W\u00f6rterbuch", "type": "user", "updated": "2019-12-18"}, "externalReferences": {"aaew": [{"id": "-1160", "type": "demotic"}]}, "id": "dm1160", "name": "Nfr-\ua723mj.t", "passport": {"bibliography": [{"bibliographical_text_field": ["BM 57371, 52"]}], "lemma": [{"main_group": [{"wclassnum": ["10060"], "word_class": ["'X"], "woart": ["0"], "lsort": ["ZXa5JYO2n"]}]}]}, "relations": {"composedOf": [{"eclass": "BTSLemmaEntry", "id": "d103", "name": "\ua723mj.t", "type": "substantive"}, {"eclass": "BTSLemmaEntry", "id": "d3156", "name": "nfr", "type": "adjective"}], "referencedBy": [{"eclass": "BTSLemmaEntry", "id": "dm2819", "name": "Nfr-\u0131\u0357mj", "type": "epitheton_title"}, {"eclass": "BTSLemmaEntry", "id": "dm2831", "name": "N\ua723-nfr-\ua723mj", "type": "epitheton_title"}, {"eclass": "BTSLemmaEntry", "id": "dm5039", "name": "N\ua723-nfr-\u0131\u0357mj", "type": "epitheton_title"}]}, "reviewState": "published", "sortKey": "LJM35KA2b", "subtype": "epith_god", "translations": {"de": ["\"Sch\u00f6n an Chakter\", Form der Isis"]}, "type": "epitheton_title", "words": [{"transcription": {"unicode": "Nfr-\ua723mj.t", "mdc": "nfr-Amj.t"}}]}, {"eclass": "BTSLemmaEntry", "editors": {"author": "Alt\u00e4gyptisches W\u00f6rterbuch", "type": "user", "contributors": ["S. Schweitzer"], "updated": "2019-12-18"}, "externalReferences": {"aaew": [{"id": "-3275", "type": "demotic"}]}, "id": "dm3275", "name": "nfr", "passport": {"bibliography": [{"bibliographical_text_field": ["vgl. Erichsen, Glossar 216f. nfr \"gut\""]}], "lemma": [{"main_group": [{"wclassnum": ["4000"], "word_class": ["'X"], "woart": ["0"], "lsort": ["ZXa"]}]}]}, "relations": {"composes": [{"eclass": "BTSLemmaEntry", "id": "d364", "name": "\u0131\u0357w=s-pw-nfr", "type": "undefined"}], "referencedBy": [{"eclass": "BTSLemmaEntry", "id": "d2978", "name": "n\ua723-nfr", "type": "verb"}, {"eclass": "BTSLemmaEntry", "id": "d8411", "name": "\u0131\u0357n-nfr", "type": "verb"}], "root": [{"eclass": "BTSLemmaEntry", "id": "866216", "name": "nfr", "type": "root"}]}, "reviewState": "published", "sortKey": "LJM", "translations": {"de": ["gut sein, sch\u00f6n sein; gut ergehen; froh sein"]}, "type": "verb", "words": [{"transcription": {"unicode": "nfr", "mdc": "nfr"}}]}, {"eclass": "BTSLemmaEntry", "editors": {"author": "Alt\u00e4gyptisches W\u00f6rterbuch", "type": "user", "updated": "2019-12-19"}, "externalReferences": {"aaew": [{"id": "2978", "type": "demotic"}]}, "id": "d2978", "name": "n\ua723-nfr", "passport": {"bibliography": [{"bibliographical_text_field": ["Erichsen, Glossar 202 und 217"]}], "lemma": [{"main_group": [{"wclassnum": ["4000"], "word_class": ["'X"], "woart": ["0"], "lsort": ["ZJ5ZXa"]}]}]}, "relations": {"referencing": [{"eclass": "BTSLemmaEntry", "id": "dm3275", "name": "nfr", "type": "verb"}]}, "reviewState": "published-obsolete", "sortKey": "L53LJM", "translations": {"de": ["sch\u00f6n sein, gut sein; gut (er)gehen; [mit \"Herz froh sein, erfreut sein; [f\u00fcr adjektivisches nfr] gut, sch\u00f6n"]}, "type": "verb", "words": [{"transcription": {"unicode": "n\ua723-nfr", "mdc": "nA-nfr"}}]}, {"eclass": "BTSLemmaEntry", "editors": {"author": "Alt\u00e4gyptisches W\u00f6rterbuch", "type": "user", "updated": "2019-12-18"}, "externalReferences": {"aaew": [{"id": "-5050", "type": "demotic"}]}, "id": "dm5050", "name": "s\u1e25n-nfr", "passport": {"bibliography": [{"bibliographical_text_field": ["Demot. Glossar 446"]}], "lemma": [{"main_group": [{"wclassnum": ["1010"], "word_class": ["'X"], "comment": ["J. D. Ray, Enchoria 14, 1986, 91"], "woart": ["0"], "lsort": ["idZ5ZXa"]}]}]}, "relations": {"composedOf": [{"eclass": "BTSLemmaEntry", "id": "d3156", "name": "nfr", "type": "adjective"}, {"eclass": "BTSLemmaEntry", "id": "d5462", "name": "s\u1e25n", "type": "substantive"}]}, "reviewState": "published", "sortKey": "UPL3LJM", "subtype": "substantive_masc", "translations": {"de": ["sch\u00f6ner Auftrag, gute Angelegenheit, guter Erfolg"]}, "type": "substantive", "words": [{"transcription": {"unicode": "s\u1e25n-nfr", "mdc": "sHn-nfr"}}]}, {"eclass": "BTSLemmaEntry", "editors": {"author": "Alt\u00e4gyptisches W\u00f6rterbuch", "type": "user", "updated": "2019-12-19"}, "externalReferences": {"aaew": [{"id": "-529", "type": "demotic"}]}, "id": "dm529", "name": "n\ua723.w-nw", "passport": {"bibliography": [{"bibliographical_text_field": ["Graff. Philae 416, 5"]}], "lemma": [{"main_group": [{"wclassnum": ["4000"], "word_class": ["'X"], "woart": ["0"], "lsort": ["ZJ2U5ZU"]}]}]}, "relations": {"referencing": [{"eclass": "BTSLemmaEntry", "id": "dm1348", "name": "\ua725n", "type": "verb"}]}, "reviewState": "published-obsolete", "sortKey": "L52G3LG", "translations": {"de": ["sch\u00f6n sein [phonet. f\u00fcr n\ua723-\ua725n = kopt. nanou]"]}, "type": "verb", "words": [{"transcription": {"unicode": "n\ua723.w-nw", "mdc": "nA.w-nw"}}]}, {"eclass": "BTSLemmaEntry", "editors": {"author": "Alt\u00e4gyptisches W\u00f6rterbuch", "type": "user", "updated": "2019-12-18"}, "externalReferences": {"aaew": [{"id": "-2254", "type": "demotic"}]}, "id": "dm2254", "name": "N\ua723-nfr-\u0131\u0357b-r\ua725", "passport": {"bibliography": [{"bibliographical_text_field": ["Demot. Nb. 617"]}], "lemma": [{"main_group": [{"wclassnum": ["10000"], "word_class": ["'X"], "woart": ["0"], "lsort": ["ZJ5ZXa5LV5aQ"]}]}]}, "relations": {"referencedBy": [{"eclass": "BTSLemmaEntry", "id": "dm2267", "name": "N\ua723-nfr-\u0131\u0357b-p\ua723-r\ua725", "type": "entity_name"}, {"eclass": "BTSLemmaEntry", "id": "dm2283", "name": "Nfr-\u0131\u0357b-r\ua725", "type": "entity_name"}]}, "reviewState": "published", "sortKey": "L53LJM39H3MD", "subtype": "person_name", "translations": {"de": ["Sch\u00f6n ist das Herz des Re\" (eigentlich Thronname Psammetichs II.)]"]}, "type": "entity_name", "words": [{"transcription": {"unicode": "N\ua723-nfr-\u0131\u0357b-r\ua725", "mdc": "nA-nfr-ib-ra"}}]}, {"eclass": "BTSLemmaEntry", "editors": {"author": "Alt\u00e4gyptisches W\u00f6rterbuch", "type": "user", "updated": "2019-12-18"}, "externalReferences": {"aaew": [{"id": "-2283", "type": "demotic"}]}, "id": "dm2283", "name": "Nfr-\u0131\u0357b-r\ua725", "passport": {"bibliography": [{"bibliographical_text_field": ["vgl. Demot. Nb. 617 (n\ua723-nfr-\u0131\u0357b-r\ua725)"]}], "lemma": [{"main_group": [{"wclassnum": ["10000"], "word_class": ["'X"], "woart": ["0"], "lsort": ["ZXa5LV5aQ"]}]}]}, "relations": {"predecessor": [{"eclass": "BTSLemmaEntry", "id": "703355", "name": "Nfr-jb-R\ua725w", "type": "entity_name"}], "referencing": [{"eclass": "BTSLemmaEntry", "id": "dm2254", "name": "N\ua723-nfr-\u0131\u0357b-r\ua725", "type": "entity_name"}]}, "reviewState": "published-obsolete", "sortKey": "LJM39H3MD", "subtype": "person_name", "translations": {"de": ["Sch\u00f6n an Herz ist Re\" (o.\u00e4.), eigentlich Thronname Psammetichs II.]"]}, "type": "entity_name", "words": [{"transcription": {"unicode": "Nfr-\u0131\u0357b-r\ua725", "mdc": "nfr-ib-ra"}}]}], "query": {"script": ["demotic"], "translation": {"text": "schoen", "lang": ["de"]}}, "page": {"number": 1, "size": 20, "numberOfElements": 18, "totalElements": 38, "totalPages": 2, "first": false, "last": true}}